JobOptionsSvc        INFO # =======> Gaudi/GaudiExamples/options/ErrorLog.opts
JobOptionsSvc        INFO # (5,1): AuditorSvc.Auditors = ["ChronoAuditor"]
JobOptionsSvc        INFO # (12,1): ApplicationMgr.TopAlg = ["ErrorLogTest"]
JobOptionsSvc        INFO # (15,1): MessageSvc.OutputLevel = 3
JobOptionsSvc        INFO # (16,1): MessageSvc.UseColors = 1
JobOptionsSvc        INFO # (17,1): THistSvc.OutputLevel = 2
JobOptionsSvc        INFO # (18,1): ApplicationMgr.OutputLevel = 1
JobOptionsSvc        INFO # (19,1): ServiceManager.OutputLevel = 2
JobOptionsSvc        INFO # (21,1): StatusCodeSvc.OutputLevel = 1
JobOptionsSvc        INFO # (30,1): IssueLogger.OutputLevel = 1
JobOptionsSvc        INFO # (31,1): IssueLogger.ReportLevel = "VERBOSE"
JobOptionsSvc        INFO # (32,1): IssueLogger.TraceBackLevel = "FATAL"
JobOptionsSvc        INFO # (33,1): IssueLogger.ShowTime = 1
JobOptionsSvc        INFO # (35,1): IssueLogger.Output = ["DEBUG='MsgSvc'"]
JobOptionsSvc        INFO # (36,1): IssueLogger.Output += ["WARNING='test.out'"]
JobOptionsSvc        INFO # (37,1): IssueLogger.Output += ["ERROR='STDERR'"]
JobOptionsSvc        INFO # (43,1): ApplicationMgr.EvtMax = 20
JobOptionsSvc        INFO # (44,1): ApplicationMgr.EvtSel = "NONE"
JobOptionsSvc        INFO Job options successfully read in from Gaudi/GaudiExamples/options/ErrorLog.opts
ApplicationMgr    SUCCESS
====================================================================================================================================
                                                   Welcome to ApplicationMgr (GaudiCoreSvc v28r1)
                                          running on pclhcb117 on Mon Dec 19 17:34:53 2016
====================================================================================================================================[m
ApplicationMgr    VERBOSE declareMultiSvcType: declared service EvtDataSvc/EventDataSvc[m
ApplicationMgr    VERBOSE declareMultiSvcType: declared service DetDataSvc/DetectorDataSvc[m
ApplicationMgr    VERBOSE declareMultiSvcType: declared service HistogramSvc/HistogramDataSvc[m
ApplicationMgr    VERBOSE declareMultiSvcType: declared service HbookCnv::PersSvc/HbookHistSvc[m
ApplicationMgr    VERBOSE declareMultiSvcType: declared service RootHistCnv::PersSvc/RootHistSvc[m
ApplicationMgr    VERBOSE declareMultiSvcType: declared service EvtPersistencySvc/EventPersistencySvc[m
ApplicationMgr    VERBOSE declareMultiSvcType: declared service DetPersistencySvc/DetectorPersistencySvc[m
ApplicationMgr    VERBOSE declareMultiSvcType: declared service HistogramPersistencySvc/HistogramPersistencySvc[m
ApplicationMgr      DEBUG Loading declared DLL's[m
ApplicationMgr    VERBOSE addMultiSvc: added service EventLoopMgr/EventLoopMgr[m
ApplicationMgr       INFO Application Manager Configured successfully[m
IssueLogger         DEBUG Property update for OutputLevel : new value = 1[m
IssueLogger         DEBUG Service base class initialized successfully[m
IssueLogger         DEBUG Writing VERBOSE issues to MsgStream[m
IssueLogger         DEBUG Writing DEBUG1 issues to MsgStream[m
IssueLogger         DEBUG Writing DEBUG2 issues to MsgStream[m
IssueLogger         DEBUG Writing DEBUG3 issues to MsgStream[m
IssueLogger         DEBUG Writing INFO issues to MsgStream[m
IssueLogger         DEBUG Writing RECOVERABLE issues to MsgStream[m
IssueLogger         DEBUG Writing FATAL issues to MsgStream[m
IssueLogger         DEBUG Writing ALWAYS issues to MsgStream[m
[94;101;1mIssueLogger         FATAL FATAL  ErrorLogTest.cpp:33  "this is a fatal" [17:34:53 2016/12/19 CET]
#1  0x7fa2c8cb6260 MinimalEventLoopMgr::initialize()  [libGaudiKernel.so]
#2  0x7fa2c4695980 EventLoopMgr::initialize()  [libGaudiCoreSvc.so]
#3  0x7fa2c8c32500 Service::sysInitialize_imp()  [libGaudiKernel.so]
#4  0 local  [/lib/x86_64-linux-gnu/libpthread.so.0]
#5  0x7fa2c8c2f910 Service::sysInitialize()  [libGaudiKernel.so]
#6  0x7fa2c469e100 ServiceManager::initialize()  [libGaudiCoreSvc.so]
#7  0x7fa2c465f290 ApplicationMgr::initialize()  [libGaudiCoreSvc.so]
#8  0x7fa2c465b790 ApplicationMgr::GoToState(Gaudi::StateMachine::State, bool)  [libGaudiCoreSvc.so]
#9  0x7fa2c465b790 ApplicationMgr::GoToState(Gaudi::StateMachine::State, bool)  [libGaudiCoreSvc.so]
#10 0x7fa2c465c970 ApplicationMgr::run()  [libGaudiCoreSvc.so]
#11 0x7fa2c8b5e8f0 GaudiMain  [libGaudiKernel.so]
#12 0x7fa2c8524740 __libc_start_main  [libc.so.6]
#13 0x400800 _start  [Gaudi.exe]
[m
IssueLogger          INFO INFO  ErrorLogTest.cpp:39  "info ErrObj" [17:34:53 2016/12/19 CET][m
[93;1mEventLoopMgr      WARNING Unable to locate service "EventSelector" [m
[93;1mEventLoopMgr      WARNING No events will be processed from external input.[m
[93;1mHistogramPersis...WARNING Histograms saving not required.[m
ApplicationMgr       INFO Application Manager Initialized successfully[m
ApplicationMgr       INFO Application Manager Started successfully[m
ApplicationMgr       INFO Application Manager Stopped successfully[m
[93;1mErrorLogTest      WARNING Finalizing...[m
EventLoopMgr         INFO Histograms converted successfully according to request.[m
IssueLogger         DEBUG IssueLogger::finalize[m
ApplicationMgr       INFO Application Manager Finalized successfully[m
ApplicationMgr       INFO Application Manager Terminated successfully[m
